…
Another interesting dataset is called `starwars`. It can be found in the package `dplyr` which is part of `tidyverse`. So, as long as you have `tidyverse` loaded into your library, `starwars` should be available to you.


```r
starwars
```

```
## # A tibble: 87 × 14
##    name     height  mass hair_color skin_color eye_color birth_year sex   gender
##    <chr>     <int> <dbl> <chr>      <chr>      <chr>          <dbl> <chr> <chr> 
##  1 Luke Sk…    172    77 blond      fair       blue            19   male  mascu…
##  2 C-3PO       167    75 <NA>       gold       yellow         112   none  mascu…
##  3 R2-D2        96    32 <NA>       white, bl… red             33   none  mascu…
##  4 Darth V…    202   136 none       white      yellow          41.9 male  mascu…
##  5 Leia Or…    150    49 brown      light      brown           19   fema… femin…
##  6 Owen La…    178   120 brown, gr… light      blue            52   male  mascu…
##  7 Beru Wh…    165    75 brown      light      blue            47   fema… femin…
##  8 R5-D4        97    32 <NA>       white, red red             NA   none  mascu…
##  9 Biggs D…    183    84 black      light      brown           24   male  mascu…
## 10 Obi-Wan…    182    77 auburn, w… fair       blue-gray       57   male  mascu…
## # ℹ 77 more rows
## # ℹ 5 more variables: homeworld <chr>, species <chr>, films <list>,
## #   vehicles <list>, starships <list>
```
…
As you can see, R is giving you a bit of an output of what it has just done - parsed some columns. The data is stored as an object in your `Global Environment` now, and we could either `call the data` (by typing `MM_data` into the `Console`) or use `glimpse()` to have a look what the data actually looks like and what data types are in each column.


```r
MM_data
```

```
## # A tibble: 30 × 7
##      Red Green  Blue Orange Yellow Brown Weight
##    <dbl> <dbl> <dbl>  <dbl>  <dbl> <dbl>  <dbl>
##  1    15     9     3      3      9    19   49.8
##  2     9    17    19      3      3     8   49.0
##  3    14     8     6      8     19     4   50.4
##  4    15     7     3      8     16     8   49.2
##  5    10     3     7      9     22     4   47.6
##  6    12     7     6      5     17    11   49.8
##  7     6     7     3      6     26    10   50.2
##  8    14    11     4      1     14    17   51.7
##  9     4     2    10      6     18    18   48.4
## 10     9     9     3      9      8    15   46.2
## # ℹ 20 more rows
```
…
