Introduction to R
…
Notice that we do not have a column header for the type of car. The reason is that the type of car is actually the name of the rows, rather than a column itself. As you can see in your Global Environment, df_mtcars has 32 observations, and 11 variables - car type is not one of them.

Adding the rownames as a separate column would be rather tricky at
this stage in the course (but you could try and do it after lecture
5).

Another interesting dataset is called starwars. It can be found in the package dplyr which is part of tidyverse. So, as long as you have tidyverse loaded into your library, starwars should be available to you.

library(tidyverse) # if you have already done this in your Rmd, this step is superfluous
starwars

## # A tibble: 87 x 14
##    name     height  mass hair_color skin_color eye_color birth_year sex   gender
##    <chr>     <int> <dbl> <chr>      <chr>      <chr>          <dbl> <chr> <chr> 
##  1 Luke Sk~    172    77 blond      fair       blue            19   male  mascu~
##  2 C-3PO       167    75 <NA>       gold       yellow         112   none  mascu~
##  3 R2-D2        96    32 <NA>       white, bl~ red             33   none  mascu~
##  4 Darth V~    202   136 none       white      yellow          41.9 male  mascu~
##  5 Leia Or~    150    49 brown      light      brown           19   fema~ femin~
##  6 Owen La~    178   120 brown, gr~ light      blue            52   male  mascu~
##  7 Beru Wh~    165    75 brown      light      blue            47   fema~ femin~
##  8 R5-D4        97    32 <NA>       white, red red             NA   none  mascu~
##  9 Biggs D~    183    84 black      light      brown           24   male  mascu~
## 10 Obi-Wan~    182    77 auburn, w~ fair       blue-gray       57   male  mascu~
## # ... with 77 more rows, and 5 more variables: homeworld <chr>, species <chr>,
## #   films <list>, vehicles <list>, starships <list>
…
MM_data <- read_csv("MM_data.csv")

## Rows: 30 Columns: 7
## -- Column specification --------------------------------------------------------
## Delimiter: ","
## dbl (7): Red, Green, Blue, Orange, Yellow, Brown, Weight
## 
## i Use `spec()` to retrieve the full column specification for this data.
## i Specify the column types or set `show_col_types = FALSE` to quiet this message.

As you can see, R is giving you a bit of an output of what it has just done - parsed some columns. The data is stored as an object in your Global Environment now, and we could either call the data (by typing MM_data into the Console) or use glimpse() to have a look what the data actually looks like and what data types are in each column.

MM_data

## # A tibble: 30 x 7
##      Red Green  Blue Orange Yellow Brown Weight
##    <dbl> <dbl> <dbl>  <dbl>  <dbl> <dbl>  <dbl>
##  1    15     9     3      3      9    19   49.8
##  2     9    17    19      3      3     8   49.0
##  3    14     8     6      8     19     4   50.4
##  4    15     7     3      8     16     8   49.2
##  5    10     3     7      9     22     4   47.6
##  6    12     7     6      5     17    11   49.8
##  7     6     7     3      6     26    10   50.2
##  8    14    11     4      1     14    17   51.7
##  9     4     2    10      6     18    18   48.4
## 10     9     9     3      9      8    15   46.2
## # ... with 20 more rows
…
3.2.5 Read in the data

Now, today we will work with two different datasets, one fairly simple dataset, and another more messy complex dataset later one.

The first is a large dataset about babynames (big surprise!). The package you installed and loaded into the library is infact a readymade dataset, that can be read straight into the Global Environment. We will deal with the second dataset later.

Name_Data <- babynames

3.2.6 View the data

Click on Name_Data in your Global Environment to open your data in a new tab on the Source pane or call the object in your Console (by typing the name of the object Name_Data) to check that the data was correctly imported into R.

Name_Data

## # A tibble: 1,924,665 x 5
##     year sex   name          n   prop
##    <dbl> <chr> <chr>     <int>  <dbl>
##  1  1880 F     Mary       7065 0.0724
##  2  1880 F     Anna       2604 0.0267
##  3  1880 F     Emma       2003 0.0205
##  4  1880 F     Elizabeth  1939 0.0199
##  5  1880 F     Minnie     1746 0.0179
##  6  1880 F     Margaret   1578 0.0162
##  7  1880 F     Ida        1472 0.0151
##  8  1880 F     Alice      1414 0.0145
##  9  1880 F     Bertha     1320 0.0135
## 10  1880 F     Sarah      1288 0.0132
## # ... with 1,924,655 more rows
…
How many columns (or variables) does Name_Data have?  

Take some time to familiarise yourself with the variables in your
dataframe.

3.3 select()

You may not want to include every single variable in your analysis. In order to include or exclude certain variables (columns), use the select() function. The first argument to this function is the object you want to select variables from (i.e. our tibble called Name_Data), and the subsequent arguments are the variables to keep.

For example, if you wanted to keep all variables except from prop, you could type:

select(Name_Data, year, sex, name, n)

## # A tibble: 1,924,665 x 4
##     year sex   name          n
##    <dbl> <chr> <chr>     <int>
##  1  1880 F     Mary       7065
##  2  1880 F     Anna       2604
##  3  1880 F     Emma       2003
##  4  1880 F     Elizabeth  1939
##  5  1880 F     Minnie     1746
##  6  1880 F     Margaret   1578
##  7  1880 F     Ida        1472
##  8  1880 F     Alice      1414
##  9  1880 F     Bertha     1320
## 10  1880 F     Sarah      1288
## # ... with 1,924,655 more rows

That works fine when you have realtively few variables like this dataset, however this menthod can become very time consuming if you have a lot of varibales in your dataset. There are two ways on how we could have done this easier and faster:

We could use the colon operator :. Similar to last week where we used the colon operator for numerical sequences, we can use it here for selecting a sequence of column names. Here, it reads as “take object student_HM, and select columns year, and every other column though to n”.

select(Name_Data, year:n)

## # A tibble: 1,924,665 x 4
##     year sex   name          n
##    <dbl> <chr> <chr>     <int>
##  1  1880 F     Mary       7065
##  2  1880 F     Anna       2604
##  3  1880 F     Emma       2003
##  4  1880 F     Elizabeth  1939
##  5  1880 F     Minnie     1746
##  6  1880 F     Margaret   1578
##  7  1880 F     Ida        1472
##  8  1880 F     Alice      1414
##  9  1880 F     Bertha     1320
## 10  1880 F     Sarah      1288
## # ... with 1,924,655 more rows

We could use “negative selection”, i.e. select the variable we wanted to drop by adding a minus in front of it.

select(Name_Data, -prop)

## # A tibble: 1,924,665 x 4
##     year sex   name          n
##    <dbl> <chr> <chr>     <int>
##  1  1880 F     Mary       7065
##  2  1880 F     Anna       2604
##  3  1880 F     Emma       2003
##  4  1880 F     Elizabeth  1939
##  5  1880 F     Minnie     1746
##  6  1880 F     Margaret   1578
##  7  1880 F     Ida        1472
##  8  1880 F     Alice      1414
##  9  1880 F     Bertha     1320
## 10  1880 F     Sarah      1288
## # ... with 1,924,655 more rows

We also have the option of “de-selecting” more than one variable. By including the minus sign before each column we can remove as many as we want.

select(Name_Data, -prop, -sex)

## # A tibble: 1,924,665 x 3
##     year name          n
##    <dbl> <chr>     <int>
##  1  1880 Mary       7065
##  2  1880 Anna       2604
##  3  1880 Emma       2003
##  4  1880 Elizabeth  1939
##  5  1880 Minnie     1746
##  6  1880 Margaret   1578
##  7  1880 Ida        1472
##  8  1880 Alice      1414
##  9  1880 Bertha     1320
## 10  1880 Sarah      1288
## # ... with 1,924,655 more rows
…
While it works code-wise, and seems a much quicker approach, it is a
very bad idea in the name of reproducibility. If you send your code to a
fellow researcher, they would have no idea what the code does. Moreover,
if at some point, you need to add another column to your data, and/or
decide to reorder the sequence of your columns, your code would not run
anymore the way you expect it to.

3.4 arrange()

The arrange() function can reorder observations (rows) in ascending (default) or descending order. The first argument to this function is again an object (in this case the tibble Name_Data), and the subsequent arguments are the variables (columns) you want to sort by. For example, if you wanted to sort by n in ascending order (which is the default in arrange()) you would type:

Name_Arr <- arrange(Name_Data, n)
Name_Arr

## # A tibble: 1,924,665 x 5
##     year sex   name          n      prop
##    <dbl> <chr> <chr>     <int>     <dbl>
##  1  1880 F     Adelle        5 0.0000512
##  2  1880 F     Adina         5 0.0000512
##  3  1880 F     Adrienne      5 0.0000512
##  4  1880 F     Albertine     5 0.0000512
##  5  1880 F     Alys          5 0.0000512
##  6  1880 F     Ana           5 0.0000512
##  7  1880 F     Araminta      5 0.0000512
##  8  1880 F     Arthur        5 0.0000512
##  9  1880 F     Birtha        5 0.0000512
## 10  1880 F     Bulah         5 0.0000512
## # ... with 1,924,655 more rows

If you were to assign this code to the same object as before
(i.e. Name_Data), the previous version of Name_Data would
be overwritten.

Notice how the n column is now organised in alphabetical order i.e. smallest number to largest. Suppose you wanted to reverse this order, displaying largest, you would need to wrap the name of the variable in the desc() function (i.e. for descending).

Name_Arr2 <- arrange(Name_Data, desc(n))
Name_Arr2

## # A tibble: 1,924,665 x 5
##     year sex   name        n   prop
##    <dbl> <chr> <chr>   <int>  <dbl>
##  1  1947 F     Linda   99686 0.0548
##  2  1948 F     Linda   96209 0.0552
##  3  1947 M     James   94756 0.0510
##  4  1957 M     Michael 92695 0.0424
##  5  1947 M     Robert  91642 0.0493
##  6  1949 F     Linda   91016 0.0518
##  7  1956 M     Michael 90620 0.0423
##  8  1958 M     Michael 90520 0.0420
##  9  1948 M     James   88588 0.0497
## 10  1954 M     Michael 88514 0.0428
## # ... with 1,924,655 more rows

You can also sort by more than one column. For example, you could sort by name first, and then n second:

Name_Arr3 <- arrange(Name_Data, name, n)
Name_Arr3

## # A tibble: 1,924,665 x 5
##     year sex   name      n       prop
##    <dbl> <chr> <chr> <int>      <dbl>
##  1  2007 M     Aaban     5 0.00000226
##  2  2009 M     Aaban     6 0.00000283
##  3  2010 M     Aaban     9 0.00000439
##  4  2016 M     Aaban     9 0.00000446
##  5  2011 M     Aaban    11 0.00000542
##  6  2012 M     Aaban    11 0.00000543
##  7  2017 M     Aaban    11 0.0000056 
##  8  2013 M     Aaban    14 0.00000694
##  9  2015 M     Aaban    15 0.00000736
## 10  2014 M     Aaban    16 0.00000783
## # ... with 1,924,655 more rows
…
library(tidyverse)
MMA_Data <- read_csv("CareerStats2.csv")

4.2 Practicing the Wikham Six

The first part of todays class will be practicing the Wickham Six some more, as was mentioned before, the vast majority of your “data time” will be wrangling your data, and most of that can be done with these six functions, so it’s good to practice with them. First you’ll see an example of each function to refresh your memory. Then you will be asked to try for yourself, these will be a little more involved than last week to really test you. If you are stuggling you can check the solutions, but try yourself first, and answer the questions too, this will help you check your code is correct.

4.2.1 select()

First up lets try to narrow down this big data set, by taking MMA_Data, and selecting only the variables; ID, Height, Weight, BMI, Reach and Stance. We will store this in Example_1.

Example_1 <- select(MMA_Data, ID, Height, Weight:Reach, Stance)
Example_1

## # A tibble: 199 x 6
##    ID               Height Weight   BMI Reach Stance  
##    <chr>             <dbl>  <dbl> <dbl> <dbl> <chr>   
##  1 056c493bbd76a918     64    125  21.5    64 Orthodox
##  2 b102c26727306ab6     65    125  20.8    67 Orthodox
##  3 80eacd4da0617c57     64    125  21.5    65 Southpaw
##  4 a4de54ea806fb525     64    125  21.5    63 Orthodox
##  5 aa72b0f831d0bfe5     65    125  20.8    68 Orthodox
##  6 92437c6775b3f7d1     66    125  20.2    66 Orthodox
##  7 5aedf14771ca82d2     64    125  21.5    65 Southpaw
##  8 a0f0004aadf10b71     65    125  20.8    67 Orthodox
##  9 f53c1f4ceeed8c08     65    125  20.8    65 Orthodox
## 10 ab2b4ff41d6ebe0f     66    125  20.2    65 Orthodox
## # ... with 189 more rows
…
Solution

# Jaimie's solutions
Q1 <- select(Example_1, -Reach)
#OR
Q1 <- select(Example_1, ID, Height, Weight, BMI, Stance)

4.2.2 arrange()

Lets move on to arrange(); lets take the table Example_1, and arrange it first by Weight, then by BMI, we’ll store this in Example_2.

Example_2 <- arrange(Example_1, Weight, BMI)
Example_2

## # A tibble: 199 x 6
##    ID               Height Weight   BMI Reach Stance  
##    <chr>             <dbl>  <dbl> <dbl> <dbl> <chr>   
##  1 199eb7cf6ae90294     69    125  18.5    71 Orthodox
##  2 0fd5f4b838e890cc     68    125  19.0    70 Orthodox
##  3 67c1d46f4ed16f9e     68    125  19.0    70 Orthodox
##  4 792be9a24df82ed6     67    125  19.6    70 Orthodox
##  5 92437c6775b3f7d1     66    125  20.2    66 Orthodox
##  6 ab2b4ff41d6ebe0f     66    125  20.2    65 Orthodox
##  7 a0c64f272b65d441     66    125  20.2    68 Orthodox
##  8 1a31ef98efce7a79     66    125  20.2    66 Switch  
##  9 2fe9032955c2e013     66    125  20.2    69 Switch  
## 10 b102c26727306ab6     65    125  20.8    67 Orthodox
## # ... with 189 more rows
…
Solution

# Jaimie's solution
Q2 <- arrange(Example_1, desc(Reach), desc(Height))

What is the BMI of the top entry in Q2? 

4.2.3 filter()

Now onto filter() which has so many uses! Lets filter out all the athletes who are over 31 years of age

Example_3 <- filter(MMA_Data, Age <=31)
Example_3

## # A tibble: 97 x 32
##    ID                Age Height HeightClass Weight   BMI Reach ReachClass Stance
##    <chr>           <dbl>  <dbl> <chr>        <dbl> <dbl> <dbl> <chr>      <chr> 
##  1 a4de54ea806fb5~  25.4     64 Short          125  21.5    63 Below      Ortho~
##  2 a0f0004aadf10b~  28.7     65 Short          125  20.8    67 Below      Ortho~
##  3 f53c1f4ceeed8c~  30       65 Short          125  20.8    65 Below      Ortho~
##  4 ab2b4ff41d6ebe~  26.8     66 Average        125  20.2    65 Below      Ortho~
##  5 87f19d19f4cb73~  30.4     65 Short          125  20.8    65 Below      Ortho~
##  6 0fd5f4b838e890~  26.7     68 Average        125  19.0    70 Below      Ortho~
##  7 20999e27ddd94b~  29.3     65 Short          125  20.8    68 Below      Ortho~
##  8 a0c64f272b65d4~  27.9     66 Average        125  20.2    68 Below      Ortho~
##  9 67c1d46f4ed16f~  29.0     68 Average        125  19.0    70 Below      Ortho~
## 10 792be9a24df82e~  25.0     67 Average        125  19.6    70 Below      Ortho~
## # ... with 87 more rows, and 23 more variables: WeightClass <chr>,
## #   T_Wins <dbl>, T_Losses <dbl>, T_Fights <dbl>, Success <dbl>,
## #   W_by_Decision <dbl>, `W_by_KO/TKO` <dbl>, W_by_Sub <dbl>,
## #   L_by_Decision <dbl>, `L_by_KO/TKO` <dbl>, L_by_Sub <dbl>, PWDec <dbl>,
## #   PWTko <dbl>, PWSub <dbl>, PLDec <dbl>, PLTko <dbl>, PLSub <dbl>,
## #   Available <dbl>, TTime <dbl>, Time_Avg <dbl>, TLpM <dbl>, AbpM <dbl>,
## #   SubAtt_Avg <dbl>
…
Hopefully now you can understand the difference.

How many athletes (observations) are left in Q5? 

4.2.4 mutate()

Moving on to mutate() now.

Lets add a new column onto the table Example_1, that shows Reach but in meters rather than inches, and we’ll call it ReachM. We can make this column with mutate() by converting the inches value in the original Reach column into centimeters, by multiplying (*) the value by 2.54 and then dividing (/) the result by 100.

Example_4 <- mutate(Example_1, ReachM = (Reach*2.54)/100)
Example_4

## # A tibble: 199 x 7
##    ID               Height Weight   BMI Reach Stance   ReachM
##    <chr>             <dbl>  <dbl> <dbl> <dbl> <chr>     <dbl>
##  1 056c493bbd76a918     64    125  21.5    64 Orthodox   1.63
##  2 b102c26727306ab6     65    125  20.8    67 Orthodox   1.70
##  3 80eacd4da0617c57     64    125  21.5    65 Southpaw   1.65
##  4 a4de54ea806fb525     64    125  21.5    63 Orthodox   1.60
##  5 aa72b0f831d0bfe5     65    125  20.8    68 Orthodox   1.73
##  6 92437c6775b3f7d1     66    125  20.2    66 Orthodox   1.68
##  7 5aedf14771ca82d2     64    125  21.5    65 Southpaw   1.65
##  8 a0f0004aadf10b71     65    125  20.8    67 Orthodox   1.70
##  9 f53c1f4ceeed8c08     65    125  20.8    65 Orthodox   1.65
## 10 ab2b4ff41d6ebe0f     66    125  20.2    65 Orthodox   1.65
## # ... with 189 more rows
…
To make things nice and clear to see, lets simplify our data a litte.

Summer_Rain <- wos_seasonal_rain %>% 
  select(year, sum)

Summer_Sun <- wos_seasonal_sun %>% 
  select(year, sum)

Summer_Rain

## # A tibble: 154 x 2
##     year   sum
##    <dbl> <dbl>
##  1  1862  426.
##  2  1863  299.
##  3  1864  255.
##  4  1865  274.
##  5  1866  345.
##  6  1867  340.
##  7  1868  295.
##  8  1869  183.
##  9  1870  205.
## 10  1871  349.
## # ... with 144 more rows

Summer_Sun

## # A tibble: 102 x 2
##     year   sum
##    <dbl> <dbl>
##  1  1919  524.
##  2  1920  411.
##  3  1921  509 
##  4  1922  385.
##  5  1923  327.
##  6  1924  329.
##  7  1925  529.
##  8  1926  512.
##  9  1927  446 
## 10  1928  408.
## # ... with 92 more rows
…
Here we merge Summer_Sun and Summer_Rain with inner_join() specifying we want to “join by” the variable year. Becuase the remaining variable has the same name in both tables, R needs to distiguish them from each other, for that we use the suffix = arguement, which allows us to specify what suffix to add to each column of the resulting table. If we do not spcify this, R will add a .x and .y suffix for us to the x (left) and y (right) table variables respectively.

inner <- inner_join(Summer_Sun, Summer_Rain, by="year", suffix = c("_sun", "_rain"))
inner

## # A tibble: 97 x 3
##     year sum_sun sum_rain
##    <dbl>   <dbl>    <dbl>
##  1  1919    524.     298 
##  2  1920    411.     358.
##  3  1921    509      354.
##  4  1922    385.     334.
##  5  1923    327.     444.
##  6  1924    329.     395.
##  7  1925    529.     228.
##  8  1926    512.     367 
##  9  1927    446      433.
## 10  1928    408.     440.
## # ... with 87 more rows
…
Let’s try this left_join() function for our simple example of Summer_Sun and Summer_Rain in R.

left <- left_join(Summer_Sun, Summer_Rain, by="year", suffix = c("_sun", "_rain"))
left

## # A tibble: 102 x 3
##     year sum_sun sum_rain
##    <dbl>   <dbl>    <dbl>
##  1  1919    524.     298 
##  2  1920    411.     358.
##  3  1921    509      354.
##  4  1922    385.     334.
##  5  1923    327.     444.
##  6  1924    329.     395.
##  7  1925    529.     228.
##  8  1926    512.     367 
##  9  1927    446      433.
## 10  1928    408.     440.
## # ... with 92 more rows
…
However, code-wise, you would still enter x as the first, and y as the second argument within right_join().

right <- right_join(Summer_Sun, Summer_Rain, by="year", suffix = c("_sun", "_rain"))
right

## # A tibble: 154 x 3
##     year sum_sun sum_rain
##    <dbl>   <dbl>    <dbl>
##  1  1919    524.     298 
##  2  1920    411.     358.
##  3  1921    509      354.
##  4  1922    385.     334.
##  5  1923    327.     444.
##  6  1924    329.     395.
##  7  1925    529.     228.
##  8  1926    512.     367 
##  9  1927    446      433.
## 10  1928    408.     440.
## # ... with 144 more rows
…
