Chapter 3 Basic Data Manipulation | Introduction to R
…
3.2.5 Read in the data

Now, today we will work with two different datasets, one fairly simple dataset, and another more messy complex dataset later one.

The first is a large dataset about babynames (big surprise!). The package you installed and loaded into the library is infact a readymade dataset, that can be read straight into the Global Environment. We will deal with the second dataset later.

Name_Data <- babynames

3.2.6 View the data

Click on Name_Data in your Global Environment to open your data in a new tab on the Source pane or call the object in your Console (by typing the name of the object Name_Data) to check that the data was correctly imported into R.

Name_Data

## # A tibble: 1,924,665 × 5
##     year sex   name          n   prop
##    <dbl> <chr> <chr>     <int>  <dbl>
##  1  1880 F     Mary       7065 0.0724
##  2  1880 F     Anna       2604 0.0267
##  3  1880 F     Emma       2003 0.0205
##  4  1880 F     Elizabeth  1939 0.0199
##  5  1880 F     Minnie     1746 0.0179
##  6  1880 F     Margaret   1578 0.0162
##  7  1880 F     Ida        1472 0.0151
##  8  1880 F     Alice      1414 0.0145
##  9  1880 F     Bertha     1320 0.0135
## 10  1880 F     Sarah      1288 0.0132
## # ℹ 1,924,655 more rows
…
How many columns (or variables) does Name_Data have?  

Take some time to familiarise yourself with the variables in your
dataframe.

3.3 select()

You may not want to include every single variable in your analysis. In order to include or exclude certain variables (columns), use the select() function. The first argument to this function is the object you want to select variables from (i.e. our tibble called Name_Data), and the subsequent arguments are the variables to keep.

For example, if you wanted to keep all variables except from prop, you could type:

select(Name_Data, year, sex, name, n)

## # A tibble: 1,924,665 × 4
##     year sex   name          n
##    <dbl> <chr> <chr>     <int>
##  1  1880 F     Mary       7065
##  2  1880 F     Anna       2604
##  3  1880 F     Emma       2003
##  4  1880 F     Elizabeth  1939
##  5  1880 F     Minnie     1746
##  6  1880 F     Margaret   1578
##  7  1880 F     Ida        1472
##  8  1880 F     Alice      1414
##  9  1880 F     Bertha     1320
## 10  1880 F     Sarah      1288
## # ℹ 1,924,655 more rows

That works fine when you have realtively few variables like this dataset, however this menthod can become very time consuming if you have a lot of varibales in your dataset. There are two ways on how we could have done this easier and faster:

We could use the colon operator :. Similar to last week where we used the colon operator for numerical sequences, we can use it here for selecting a sequence of column names. Here, it reads as “take object student_HM, and select columns year, and every other column though to n”.

select(Name_Data, year:n)

## # A tibble: 1,924,665 × 4
##     year sex   name          n
##    <dbl> <chr> <chr>     <int>
##  1  1880 F     Mary       7065
##  2  1880 F     Anna       2604
##  3  1880 F     Emma       2003
##  4  1880 F     Elizabeth  1939
##  5  1880 F     Minnie     1746
##  6  1880 F     Margaret   1578
##  7  1880 F     Ida        1472
##  8  1880 F     Alice      1414
##  9  1880 F     Bertha     1320
## 10  1880 F     Sarah      1288
## # ℹ 1,924,655 more rows

We could use “negative selection”, i.e. select the variable we wanted to drop by adding a minus in front of it.

select(Name_Data, -prop)

## # A tibble: 1,924,665 × 4
##     year sex   name          n
##    <dbl> <chr> <chr>     <int>
##  1  1880 F     Mary       7065
##  2  1880 F     Anna       2604
##  3  1880 F     Emma       2003
##  4  1880 F     Elizabeth  1939
##  5  1880 F     Minnie     1746
##  6  1880 F     Margaret   1578
##  7  1880 F     Ida        1472
##  8  1880 F     Alice      1414
##  9  1880 F     Bertha     1320
## 10  1880 F     Sarah      1288
## # ℹ 1,924,655 more rows

We also have the option of “de-selecting” more than one variable. By including the minus sign before each column we can remove as many as we want.

select(Name_Data, -prop, -sex)

## # A tibble: 1,924,665 × 3
##     year name          n
##    <dbl> <chr>     <int>
##  1  1880 Mary       7065
##  2  1880 Anna       2604
##  3  1880 Emma       2003
##  4  1880 Elizabeth  1939
##  5  1880 Minnie     1746
##  6  1880 Margaret   1578
##  7  1880 Ida        1472
##  8  1880 Alice      1414
##  9  1880 Bertha     1320
## 10  1880 Sarah      1288
## # ℹ 1,924,655 more rows
…
# select(data, new_column_name = old_column_name)

Modifying the rename() example from above would lead to selecting only the columns country and population from table1 and renaming them as Country and Population at the same time.

# select(table1, Country = country,
#        Population = population)

3.5 arrange()

The arrange() function can reorder observations (rows) in ascending (default) or descending order. The first argument to this function is again an object (in this case the tibble Name_Data), and the subsequent arguments are the variables (columns) you want to sort by. For example, if you wanted to sort by n in ascending order (which is the default in arrange()) you would type:

Name_Arr <- arrange(Name_Data, n)
Name_Arr

## # A tibble: 1,924,665 × 5
##     year sex   name          n      prop
##    <dbl> <chr> <chr>     <int>     <dbl>
##  1  1880 F     Adelle        5 0.0000512
##  2  1880 F     Adina         5 0.0000512
##  3  1880 F     Adrienne      5 0.0000512
##  4  1880 F     Albertine     5 0.0000512
##  5  1880 F     Alys          5 0.0000512
##  6  1880 F     Ana           5 0.0000512
##  7  1880 F     Araminta      5 0.0000512
##  8  1880 F     Arthur        5 0.0000512
##  9  1880 F     Birtha        5 0.0000512
## 10  1880 F     Bulah         5 0.0000512
## # ℹ 1,924,655 more rows

If you were to assign this code to the same object as before
(i.e. Name_Data), the previous version of Name_Data would
be overwritten.

Notice how the n column is now organised in alphabetical order i.e. smallest number to largest. Suppose you wanted to reverse this order, displaying largest, you would need to wrap the name of the variable in the desc() function (i.e. for descending).

Name_Arr2 <- arrange(Name_Data, desc(n))
Name_Arr2

## # A tibble: 1,924,665 × 5
##     year sex   name        n   prop
##    <dbl> <chr> <chr>   <int>  <dbl>
##  1  1947 F     Linda   99686 0.0548
##  2  1948 F     Linda   96209 0.0552
##  3  1947 M     James   94756 0.0510
##  4  1957 M     Michael 92695 0.0424
##  5  1947 M     Robert  91642 0.0493
##  6  1949 F     Linda   91016 0.0518
##  7  1956 M     Michael 90620 0.0423
##  8  1958 M     Michael 90520 0.0420
##  9  1948 M     James   88588 0.0497
## 10  1954 M     Michael 88514 0.0428
## # ℹ 1,924,655 more rows

You can also sort by more than one column. For example, you could sort by name first, and then n second:

Name_Arr3 <- arrange(Name_Data, name, n)
Name_Arr3

## # A tibble: 1,924,665 × 5
##     year sex   name      n       prop
##    <dbl> <chr> <chr> <int>      <dbl>
##  1  2007 M     Aaban     5 0.00000226
##  2  2009 M     Aaban     6 0.00000283
##  3  2010 M     Aaban     9 0.00000439
##  4  2016 M     Aaban     9 0.00000446
##  5  2011 M     Aaban    11 0.00000542
##  6  2012 M     Aaban    11 0.00000543
##  7  2017 M     Aaban    11 0.0000056 
##  8  2013 M     Aaban    14 0.00000694
##  9  2015 M     Aaban    15 0.00000736
## 10  2014 M     Aaban    16 0.00000783
## # ℹ 1,924,655 more rows
…
MMA_Data <- read_csv("data/CareerStats2.csv")

3.11 Practicing the Wickham Six

The first part of todays class will be practicing the Wickham Six some more, as was mentioned before, the vast majority of your “data time” will be wrangling your data, and most of that can be done with these six functions, so it’s good to practice with them. First you’ll see an example of each function to refresh your memory. Then you will be asked to try for yourself, these will be a little more involved than last week to really test you. If you are stuggling you can check the solutions, but try yourself first, and answer the questions too, this will help you check your code is correct.

3.11.1 select()

First up lets try to narrow down this big data set, by taking MMA_Data, and selecting only the variables; ID, Height, Weight, BMI, Reach and Stance. We will store this in Example_1.

Example_1 <- select(MMA_Data, ID, Height, Weight:Reach, Stance)
Example_1

## # A tibble: 199 × 6
##    ID               Height Weight   BMI Reach Stance  
##    <chr>             <dbl>  <dbl> <dbl> <dbl> <chr>   
##  1 056c493bbd76a918     64    125  21.5    64 Orthodox
##  2 b102c26727306ab6     65    125  20.8    67 Orthodox
##  3 80eacd4da0617c57     64    125  21.5    65 Southpaw
##  4 a4de54ea806fb525     64    125  21.5    63 Orthodox
##  5 aa72b0f831d0bfe5     65    125  20.8    68 Orthodox
##  6 92437c6775b3f7d1     66    125  20.2    66 Orthodox
##  7 5aedf14771ca82d2     64    125  21.5    65 Southpaw
##  8 a0f0004aadf10b71     65    125  20.8    67 Orthodox
##  9 f53c1f4ceeed8c08     65    125  20.8    65 Orthodox
## 10 ab2b4ff41d6ebe0f     66    125  20.2    65 Orthodox
## # ℹ 189 more rows
…
Solution

# Jaimie's solutions
Q1 <- select(Example_1, -Reach)
#OR
Q1 <- select(Example_1, ID, Height, Weight, BMI, Stance)

3.11.2 arrange()

Lets move on to arrange(); lets take the table Example_1, and arrange it first by Weight, then by BMI, we’ll store this in Example_2.

Example_2 <- arrange(Example_1, Weight, BMI)
Example_2

## # A tibble: 199 × 6
##    ID               Height Weight   BMI Reach Stance  
##    <chr>             <dbl>  <dbl> <dbl> <dbl> <chr>   
##  1 199eb7cf6ae90294     69    125  18.5    71 Orthodox
##  2 0fd5f4b838e890cc     68    125  19.0    70 Orthodox
##  3 67c1d46f4ed16f9e     68    125  19.0    70 Orthodox
##  4 792be9a24df82ed6     67    125  19.6    70 Orthodox
##  5 92437c6775b3f7d1     66    125  20.2    66 Orthodox
##  6 ab2b4ff41d6ebe0f     66    125  20.2    65 Orthodox
##  7 a0c64f272b65d441     66    125  20.2    68 Orthodox
##  8 1a31ef98efce7a79     66    125  20.2    66 Switch  
##  9 2fe9032955c2e013     66    125  20.2    69 Switch  
## 10 b102c26727306ab6     65    125  20.8    67 Orthodox
## # ℹ 189 more rows
…
Solution

# Jaimie's solution
Q2 <- arrange(Example_1, desc(Reach), Height)

What is the BMI of the top entry in Q2? 

3.11.3 filter()

Now onto filter() which has so many uses! Lets filter out all the athletes who are over 31 years of age

Example_3 <- filter(MMA_Data, Age <=31)
Example_3

## # A tibble: 97 × 32
##    ID                Age Height HeightClass Weight   BMI Reach ReachClass Stance
##    <chr>           <dbl>  <dbl> <chr>        <dbl> <dbl> <dbl> <chr>      <chr> 
##  1 a4de54ea806fb5…  25.4     64 Short          125  21.5    63 Below      Ortho…
##  2 a0f0004aadf10b…  28.7     65 Short          125  20.8    67 Below      Ortho…
##  3 f53c1f4ceeed8c…  30       65 Short          125  20.8    65 Below      Ortho…
##  4 ab2b4ff41d6ebe…  26.8     66 Average        125  20.2    65 Below      Ortho…
##  5 87f19d19f4cb73…  30.4     65 Short          125  20.8    65 Below      Ortho…
##  6 0fd5f4b838e890…  26.7     68 Average        125  19.0    70 Below      Ortho…
##  7 20999e27ddd94b…  29.3     65 Short          125  20.8    68 Below      Ortho…
##  8 a0c64f272b65d4…  27.9     66 Average        125  20.2    68 Below      Ortho…
##  9 67c1d46f4ed16f…  29.0     68 Average        125  19.0    70 Below      Ortho…
## 10 792be9a24df82e…  25.0     67 Average        125  19.6    70 Below      Ortho…
## # ℹ 87 more rows
## # ℹ 23 more variables: WeightClass <chr>, T_Wins <dbl>, T_Losses <dbl>,
## #   T_Fights <dbl>, Success <dbl>, W_by_Decision <dbl>, `W_by_KO/TKO` <dbl>,
## #   W_by_Sub <dbl>, L_by_Decision <dbl>, `L_by_KO/TKO` <dbl>, L_by_Sub <dbl>,
## #   PWDec <dbl>, PWTko <dbl>, PWSub <dbl>, PLDec <dbl>, PLTko <dbl>,
## #   PLSub <dbl>, Available <dbl>, TTime <dbl>, Time_Avg <dbl>, TLpM <dbl>,
## #   AbpM <dbl>, SubAtt_Avg <dbl>
…
Hopefully now you can understand the difference.

How many athletes (observations) are left in Q5? 

3.11.4 mutate()

Moving on to mutate() now.

Lets add a new column onto the table Example_1, that shows Reach but in meters rather than inches, and we’ll call it ReachM. We can make this column with mutate() by converting the inches value in the original Reach column into centimeters, by multiplying (*) the value by 2.54 and then dividing (/) the result by 100.

Example_4 <- mutate(Example_1, ReachM = (Reach*2.54)/100)
Example_4

## # A tibble: 199 × 7
##    ID               Height Weight   BMI Reach Stance   ReachM
##    <chr>             <dbl>  <dbl> <dbl> <dbl> <chr>     <dbl>
##  1 056c493bbd76a918     64    125  21.5    64 Orthodox   1.63
##  2 b102c26727306ab6     65    125  20.8    67 Orthodox   1.70
##  3 80eacd4da0617c57     64    125  21.5    65 Southpaw   1.65
##  4 a4de54ea806fb525     64    125  21.5    63 Orthodox   1.60
##  5 aa72b0f831d0bfe5     65    125  20.8    68 Orthodox   1.73
##  6 92437c6775b3f7d1     66    125  20.2    66 Orthodox   1.68
##  7 5aedf14771ca82d2     64    125  21.5    65 Southpaw   1.65
##  8 a0f0004aadf10b71     65    125  20.8    67 Orthodox   1.70
##  9 f53c1f4ceeed8c08     65    125  20.8    65 Orthodox   1.65
## 10 ab2b4ff41d6ebe0f     66    125  20.2    65 Orthodox   1.65
## # ℹ 189 more rows
…
