Chapter 3 Data Transformation 1: Basic One Table Verbs | Introduction to R
…
3.2.5 Read in the data

Now, today we will work with two different datasets, one fairly simple dataset, and another more messy complex dataset later one.

The first is a large dataset about babynames (big surprise!). The package you installed and loaded into the library is infact a readymade dataset, that can be read straight into the Global Environment. We will deal with the second dataset later.

Name_Data <- babynames

3.2.6 View the data

Click on Name_Data in your Global Environment to open your data in a new tab on the Source pane or call the object in your Console (by typing the name of the object Name_Data) to check that the data was correctly imported into R.

Name_Data

## # A tibble: 1,924,665 x 5
##     year sex   name          n   prop
##    <dbl> <chr> <chr>     <int>  <dbl>
##  1  1880 F     Mary       7065 0.0724
##  2  1880 F     Anna       2604 0.0267
##  3  1880 F     Emma       2003 0.0205
##  4  1880 F     Elizabeth  1939 0.0199
##  5  1880 F     Minnie     1746 0.0179
##  6  1880 F     Margaret   1578 0.0162
##  7  1880 F     Ida        1472 0.0151
##  8  1880 F     Alice      1414 0.0145
##  9  1880 F     Bertha     1320 0.0135
## 10  1880 F     Sarah      1288 0.0132
## # ... with 1,924,655 more rows
…
How many columns (or variables) does Name_Data have?  

Take some time to familiarise yourself with the variables in your
dataframe.

3.3 select()

You may not want to include every single variable in your analysis. In order to include or exclude certain variables (columns), use the select() function. The first argument to this function is the object you want to select variables from (i.e.Â our tibble called Name_Data), and the subsequent arguments are the variables to keep.

For example, if you wanted to keep all variables except from prop, you could type:

select(Name_Data, year, sex, name, n)

## # A tibble: 1,924,665 x 4
##     year sex   name          n
##    <dbl> <chr> <chr>     <int>
##  1  1880 F     Mary       7065
##  2  1880 F     Anna       2604
##  3  1880 F     Emma       2003
##  4  1880 F     Elizabeth  1939
##  5  1880 F     Minnie     1746
##  6  1880 F     Margaret   1578
##  7  1880 F     Ida        1472
##  8  1880 F     Alice      1414
##  9  1880 F     Bertha     1320
## 10  1880 F     Sarah      1288
## # ... with 1,924,655 more rows

That works fine when you have realtively few variables like this dataset, however this menthod can become very time consuming if you have a lot of varibales in your dataset. There are two ways on how we could have done this easier and faster:

We could use the colon operator :. Similar to last week where we used the colon operator for numerical sequences, we can use it here for selecting a sequence of column names. Here, it reads as â€œtake object student_HM, and select columns year, and every other column though to nâ€.

select(Name_Data, year:n)

## # A tibble: 1,924,665 x 4
##     year sex   name          n
##    <dbl> <chr> <chr>     <int>
##  1  1880 F     Mary       7065
##  2  1880 F     Anna       2604
##  3  1880 F     Emma       2003
##  4  1880 F     Elizabeth  1939
##  5  1880 F     Minnie     1746
##  6  1880 F     Margaret   1578
##  7  1880 F     Ida        1472
##  8  1880 F     Alice      1414
##  9  1880 F     Bertha     1320
## 10  1880 F     Sarah      1288
## # ... with 1,924,655 more rows

We could use â€œnegative selectionâ€, i.e.Â select the variable we wanted to drop by adding a minus in front of it.

select(Name_Data, -prop)

## # A tibble: 1,924,665 x 4
##     year sex   name          n
##    <dbl> <chr> <chr>     <int>
##  1  1880 F     Mary       7065
##  2  1880 F     Anna       2604
##  3  1880 F     Emma       2003
##  4  1880 F     Elizabeth  1939
##  5  1880 F     Minnie     1746
##  6  1880 F     Margaret   1578
##  7  1880 F     Ida        1472
##  8  1880 F     Alice      1414
##  9  1880 F     Bertha     1320
## 10  1880 F     Sarah      1288
## # ... with 1,924,655 more rows

We also have the option of â€œde-selectingâ€ more than one variable. By including the minus sign before each column we can remove as many as we want.

select(Name_Data, -prop, -sex)

## # A tibble: 1,924,665 x 3
##     year name          n
##    <dbl> <chr>     <int>
##  1  1880 Mary       7065
##  2  1880 Anna       2604
##  3  1880 Emma       2003
##  4  1880 Elizabeth  1939
##  5  1880 Minnie     1746
##  6  1880 Margaret   1578
##  7  1880 Ida        1472
##  8  1880 Alice      1414
##  9  1880 Bertha     1320
## 10  1880 Sarah      1288
## # ... with 1,924,655 more rows
…
While it works code-wise, and seems a much quicker approach, it is a
very bad idea in the name of reproducibility. If you send your code to a
fellow researcher, they would have no idea what the code does. Moreover,
if at some point, you need to add another column to your data, and/or
decide to reorder the sequence of your columns, your code would not run
anymore the way you expect it to.

3.4 arrange()

The arrange() function can reorder observations (rows) in ascending (default) or descending order. The first argument to this function is again an object (in this case the tibble Name_Data), and the subsequent arguments are the variables (columns) you want to sort by. For example, if you wanted to sort by n in ascending order (which is the default in arrange()) you would type:

Name_Arr <- arrange(Name_Data, n)
Name_Arr

## # A tibble: 1,924,665 x 5
##     year sex   name          n      prop
##    <dbl> <chr> <chr>     <int>     <dbl>
##  1  1880 F     Adelle        5 0.0000512
##  2  1880 F     Adina         5 0.0000512
##  3  1880 F     Adrienne      5 0.0000512
##  4  1880 F     Albertine     5 0.0000512
##  5  1880 F     Alys          5 0.0000512
##  6  1880 F     Ana           5 0.0000512
##  7  1880 F     Araminta      5 0.0000512
##  8  1880 F     Arthur        5 0.0000512
##  9  1880 F     Birtha        5 0.0000512
## 10  1880 F     Bulah         5 0.0000512
## # ... with 1,924,655 more rows

If you were to assign this code to the same object as before
(i.e.Â Name_Data), the previous version of Name_Data would
be overwritten.

Notice how the n column is now organised in alphabetical order i.e.Â smallest number to largest. Suppose you wanted to reverse this order, displaying largest, you would need to wrap the name of the variable in the desc() function (i.e.Â for descending).

Name_Arr2 <- arrange(Name_Data, desc(n))
Name_Arr2

## # A tibble: 1,924,665 x 5
##     year sex   name        n   prop
##    <dbl> <chr> <chr>   <int>  <dbl>
##  1  1947 F     Linda   99686 0.0548
##  2  1948 F     Linda   96209 0.0552
##  3  1947 M     James   94756 0.0510
##  4  1957 M     Michael 92695 0.0424
##  5  1947 M     Robert  91642 0.0493
##  6  1949 F     Linda   91016 0.0518
##  7  1956 M     Michael 90620 0.0423
##  8  1958 M     Michael 90520 0.0420
##  9  1948 M     James   88588 0.0497
## 10  1954 M     Michael 88514 0.0428
## # ... with 1,924,655 more rows

You can also sort by more than one column. For example, you could sort by name first, and then n second:

Name_Arr3 <- arrange(Name_Data, name, n)
Name_Arr3

## # A tibble: 1,924,665 x 5
##     year sex   name      n       prop
##    <dbl> <chr> <chr> <int>      <dbl>
##  1  2007 M     Aaban     5 0.00000226
##  2  2009 M     Aaban     6 0.00000283
##  3  2010 M     Aaban     9 0.00000439
##  4  2016 M     Aaban     9 0.00000446
##  5  2011 M     Aaban    11 0.00000542
##  6  2012 M     Aaban    11 0.00000543
##  7  2017 M     Aaban    11 0.0000056 
##  8  2013 M     Aaban    14 0.00000694
##  9  2015 M     Aaban    15 0.00000736
## 10  2014 M     Aaban    16 0.00000783
## # ... with 1,924,655 more rows
…
