Chapter 6 Data Transformation 4: Fine-tuned Data Manipulation | Introduction to R
…
Sex_char as Sex

Institution_char as Institution

fake_data <- NULL

Solution

# solution using select:
fake_data <- fake_data %>% 
  select(Participant_ID = PP_ID, Sex = Sex_char, Age, Institution = Institution_char, Grade_points, Grade, Pass_Fail)

fake_data

## # A tibble: 40 x 7
##    Participant_ID Sex     Age Institution Grade_points Grade Pass_Fail
##             <int> <chr> <int> <chr>              <dbl> <chr> <chr>    
##  1              1 Male     19 GCU                    0 H     Fail     
##  2              2 Male     22 UoG                   20 A     Pass     
##  3              3 Male     24 UoG                   15 B     Pass     
##  4              4 Male     29 UWS                   20 A     Pass     
##  5              5 Male     16 Strathclyde           11 D     Pass     
##  6              6 Male     25 GCU                   22 A     Pass     
##  7              7 Male     37 UoG                   21 A     Pass     
##  8              8 Male     18 UWS                    9 D     Fail     
##  9              9 Male     38 GCU                   13 C     Pass     
## 10             10 Male     39 UWS                   22 A     Pass     
## # ... with 30 more rows
…
Join the fake_data and grade_points, and calculate how much each person differs from the mean of their university. Results should be stored in a column named grade_diff. Store the output in your Global Environment as a new object called fake_data_meandiff. Sort the data by Institution and Sex.

fake_data_meandiff <- NULL

Solution

fake_data_meandiff <- left_join(fake_data, grade_points) %>% 
  mutate(grade_diff = Grade_points - Average_grade_points) %>% 
  arrange(Institution, Sex)

## Joining, by = "Institution"

fake_data_meandiff

## # A tibble: 40 x 9
##    Participant_ID Sex      Age Institution Grade_points Grade Pass_Fail
##             <int> <chr>  <int> <chr>              <dbl> <chr> <chr>    
##  1             20 Female    34 GCU                   20 A     Pass     
##  2             21 Female    27 GCU                   10 D     Pass     
##  3             28 Female    39 GCU                   16 B     Pass     
##  4             36 Female    16 GCU                   21 A     Pass     
##  5              1 Male      19 GCU                    0 H     Fail     
##  6              6 Male      25 GCU                   22 A     Pass     
##  7              9 Male      38 GCU                   13 C     Pass     
##  8             11 Male      30 GCU                   19 A     Pass     
##  9             16 Male      26 GCU                   17 B     Pass     
## 10             17 Male      33 GCU                   20 A     Pass     
## # ... with 30 more rows, and 2 more variables: Average_grade_points <dbl>,
## #   grade_diff <dbl>
…
