Chapter 6 Tidy Data 3: Joins | Introduction to R
…
6.2 Two-Table Verbs

More often than not you will find yourself with data across multiple tables. In order to effectively combine multiple tables, dplyr provides a selection of mutating join verbs.

6.2.1 Bringing in new data

First of all lets bring in some familiar data to look at these new functions.

6.2.1.1 What’s the data

We’re going to use 2 datasets that you should be familiar with from last week. The starwars data from the tidyverse and the babynames data package.

starwars

## # A tibble: 87 × 14
##    name     height  mass hair_color skin_color eye_color birth_year sex   gender
##    <chr>     <int> <dbl> <chr>      <chr>      <chr>          <dbl> <chr> <chr> 
##  1 Luke Sk…    172    77 blond      fair       blue            19   male  mascu…
##  2 C-3PO       167    75 <NA>       gold       yellow         112   none  mascu…
##  3 R2-D2        96    32 <NA>       white, bl… red             33   none  mascu…
##  4 Darth V…    202   136 none       white      yellow          41.9 male  mascu…
##  5 Leia Or…    150    49 brown      light      brown           19   fema… femin…
##  6 Owen La…    178   120 brown, gr… light      blue            52   male  mascu…
##  7 Beru Wh…    165    75 brown      light      blue            47   fema… femin…
##  8 R5-D4        97    32 <NA>       white, red red             NA   none  mascu…
##  9 Biggs D…    183    84 black      light      brown           24   male  mascu…
## 10 Obi-Wan…    182    77 auburn, w… fair       blue-gray       57   male  mascu…
## # ℹ 77 more rows
## # ℹ 5 more variables: homeworld <chr>, species <chr>, films <list>,
## #   vehicles <list>, starships <list>

babynames

## # A tibble: 1,924,665 × 5
##     year sex   name          n   prop
##    <dbl> <chr> <chr>     <int>  <dbl>
##  1  1880 F     Mary       7065 0.0724
##  2  1880 F     Anna       2604 0.0267
##  3  1880 F     Emma       2003 0.0205
##  4  1880 F     Elizabeth  1939 0.0199
##  5  1880 F     Minnie     1746 0.0179
##  6  1880 F     Margaret   1578 0.0162
##  7  1880 F     Ida        1472 0.0151
##  8  1880 F     Alice      1414 0.0145
##  9  1880 F     Bertha     1320 0.0135
## 10  1880 F     Sarah      1288 0.0132
## # ℹ 1,924,655 more rows
…
Here we merge babynames and sw_names with inner_join() specifying we want to “join by” the variable name. Because both tables have the column sex, R needs to distiguish them from each other, for that we use the suffix = argument, which allows us to specify what suffix to add to each column of the resulting table. If we do not spcify this, R will add a .x and .y suffix for us to the x (left) and y (right) table variables respectively.

inner <- inner_join(sw_names, babynames, by = join_by(name), suffix = c("_sw", "_baby"))
inner

## # A tibble: 369 × 7
##    name  sex_sw homeworld  year sex_baby     n       prop
##    <chr> <chr>  <chr>     <dbl> <chr>    <int>      <dbl>
##  1 Darth M      Tatooine   1977 M            9 0.00000526
##  2 Darth M      Tatooine   1978 M           13 0.00000761
##  3 Darth M      Tatooine   1979 M            7 0.00000391
##  4 Han   M      Corellia   1968 M            5 0.00000282
##  5 Han   M      Corellia   1969 M            6 0.00000328
##  6 Han   M      Corellia   1973 M            5 0.0000031 
##  7 Han   M      Corellia   1974 M            6 0.00000368
##  8 Han   M      Corellia   1976 M            7 0.00000429
##  9 Han   M      Corellia   1977 F            5 0.00000304
## 10 Han   M      Corellia   1977 M            8 0.00000468
## # ℹ 359 more rows
…
Let’s try this left_join() function for our simple example of babynames and sw_names in R.

left <- left_join(sw_names, babynames, by = join_by(name), suffix = c("_sw", "_baby"))
left

## # A tibble: 380 × 7
##    name      sex_sw homeworld  year sex_baby     n        prop
##    <chr>     <chr>  <chr>     <dbl> <chr>    <int>       <dbl>
##  1 Boba      M      Kamino       NA <NA>        NA NA         
##  2 Bossk     M      Trandosha    NA <NA>        NA NA         
##  3 C-3PO     <NA>   Tatooine     NA <NA>        NA NA         
##  4 Chewbacca M      Kashyyyk     NA <NA>        NA NA         
##  5 Darth     M      Tatooine   1977 M            9  0.00000526
##  6 Darth     M      Tatooine   1978 M           13  0.00000761
##  7 Darth     M      Tatooine   1979 M            7  0.00000391
##  8 Han       M      Corellia   1968 M            5  0.00000282
##  9 Han       M      Corellia   1969 M            6  0.00000328
## 10 Han       M      Corellia   1973 M            5  0.0000031 
## # ℹ 370 more rows
…
We can get the same data as we did with inner_join() if we remove the missing values. We can check if 2 objects are the same in R using the identical() function.

left_filt <- filter(left, !is.na(year))

identical(left_filt, inner)

## [1] TRUE

If we want to do it the other way round we can reverse the order of the tables. This time I’ll also leave out the by argument so that we only match the rows where both name and sex match. (Note the helpful message we get.)

left_join(babynames, sw_names)

## Joining with `by = join_by(sex, name)`

## # A tibble: 1,924,665 × 6
##     year sex   name          n   prop homeworld
##    <dbl> <chr> <chr>     <int>  <dbl> <chr>    
##  1  1880 F     Mary       7065 0.0724 <NA>     
##  2  1880 F     Anna       2604 0.0267 <NA>     
##  3  1880 F     Emma       2003 0.0205 <NA>     
##  4  1880 F     Elizabeth  1939 0.0199 <NA>     
##  5  1880 F     Minnie     1746 0.0179 <NA>     
##  6  1880 F     Margaret   1578 0.0162 <NA>     
##  7  1880 F     Ida        1472 0.0151 <NA>     
##  8  1880 F     Alice      1414 0.0145 <NA>     
##  9  1880 F     Bertha     1320 0.0135 <NA>     
## 10  1880 F     Sarah      1288 0.0132 <NA>     
## # ℹ 1,924,655 more rows
…
right <- right_join(sw_names, babynames, by = join_by(name, sex))
right

## # A tibble: 1,924,665 × 6
##    name  sex   homeworld  year     n       prop
##    <chr> <chr> <chr>     <dbl> <int>      <dbl>
##  1 Darth M     Tatooine   1977     9 0.00000526
##  2 Darth M     Tatooine   1978    13 0.00000761
##  3 Darth M     Tatooine   1979     7 0.00000391
##  4 Han   M     Corellia   1968     5 0.00000282
##  5 Han   M     Corellia   1969     6 0.00000328
##  6 Han   M     Corellia   1973     5 0.0000031 
##  7 Han   M     Corellia   1974     6 0.00000368
##  8 Han   M     Corellia   1976     7 0.00000429
##  9 Han   M     Corellia   1977     8 0.00000468
## 10 Han   M     Corellia   1978     5 0.00000293
## # ℹ 1,924,655 more rows

Here sw_names is returned in full, and for every matching name in babynames the value is added, for any row of sw_names that does not have a matching value in babynames, NA is added. Notice the order of the rows, though!!! All the names from sw_names come first before the extra rows from babynames which are added at the bottom. That is due to the order of how they are entered into the right_join() function. The “left” data (first table) is still prioritised in terms of ordering observations!

arrange(right, name)

## # A tibble: 1,924,665 × 6
##    name  sex   homeworld  year     n       prop
##    <chr> <chr> <chr>     <dbl> <int>      <dbl>
##  1 Aaban M     <NA>       2007     5 0.00000226
##  2 Aaban M     <NA>       2009     6 0.00000283
##  3 Aaban M     <NA>       2010     9 0.00000439
##  4 Aaban M     <NA>       2011    11 0.00000542
##  5 Aaban M     <NA>       2012    11 0.00000543
##  6 Aaban M     <NA>       2013    14 0.00000694
##  7 Aaban M     <NA>       2014    16 0.00000783
##  8 Aaban M     <NA>       2015    15 0.00000736
##  9 Aaban M     <NA>       2016     9 0.00000446
## 10 Aaban M     <NA>       2017    11 0.0000056 
## # ℹ 1,924,655 more rows
…
full <- full_join(sw_names, babynames, join_by(name), suffix = c("_baby", "_sw"))
full

## # A tibble: 1,924,676 × 7
##    name      sex_baby homeworld  year sex_sw     n        prop
##    <chr>     <chr>    <chr>     <dbl> <chr>  <int>       <dbl>
##  1 Boba      M        Kamino       NA <NA>      NA NA         
##  2 Bossk     M        Trandosha    NA <NA>      NA NA         
##  3 C-3PO     <NA>     Tatooine     NA <NA>      NA NA         
##  4 Chewbacca M        Kashyyyk     NA <NA>      NA NA         
##  5 Darth     M        Tatooine   1977 M          9  0.00000526
##  6 Darth     M        Tatooine   1978 M         13  0.00000761
##  7 Darth     M        Tatooine   1979 M          7  0.00000391
##  8 Han       M        Corellia   1968 M          5  0.00000282
##  9 Han       M        Corellia   1969 M          6  0.00000328
## 10 Han       M        Corellia   1973 M          5  0.0000031 
## # ℹ 1,924,666 more rows
…
beat_left <- NULL

Solution

#Alistair's solution
beat_left <- left_join(beatnames, babynames, by = join_by(name), suffix = c("_beat", "_baby"))
beat_left

## # A tibble: 884 × 6
##    name  n_beat  year sex   n_baby     prop
##    <chr>  <int> <dbl> <chr>  <int>    <dbl>
##  1 John       1  1880 F         46 0.000471
##  2 John       1  1880 M       9655 0.0815  
##  3 John       1  1881 F         26 0.000263
##  4 John       1  1881 M       8769 0.0810  
##  5 John       1  1882 F         40 0.000346
##  6 John       1  1882 M       9557 0.0783  
##  7 John       1  1883 F         40 0.000333
##  8 John       1  1883 M       8894 0.0791  
##  9 John       1  1884 F         40 0.000291
## 10 John       1  1884 M       9388 0.0765  
## # ℹ 874 more rows

beat_right <- NULL

Solution

#Alistair's solution
beat_right <- right_join(babynames, beatnames, by = join_by(name), suffix = c("_baby", "_beat"))
beat_right

## # A tibble: 884 × 6
##     year sex   name   n_baby     prop n_beat
##    <dbl> <chr> <chr>   <int>    <dbl>  <int>
##  1  1880 F     John       46 0.000471      1
##  2  1880 F     George     26 0.000266      3
##  3  1880 M     John     9655 0.0815        1
##  4  1880 M     George   5126 0.0433        3
##  5  1880 M     Paul      301 0.00254       2
##  6  1881 F     George     30 0.000303      3
##  7  1881 F     John       26 0.000263      1
##  8  1881 M     John     8769 0.0810        1
##  9  1881 M     George   4664 0.0431        3
## 10  1881 M     Paul      291 0.00269       2
## # ℹ 874 more rows

beat_inner <- NULL

Solution

#Alistair's solution
beat_inner <- inner_join(beatnames, babynames, by = join_by(name), suffix = c("_beat", "_baby"))
beat_inner

## # A tibble: 883 × 6
##    name  n_beat  year sex   n_baby     prop
##    <chr>  <int> <dbl> <chr>  <int>    <dbl>
##  1 John       1  1880 F         46 0.000471
##  2 John       1  1880 M       9655 0.0815  
##  3 John       1  1881 F         26 0.000263
##  4 John       1  1881 M       8769 0.0810  
##  5 John       1  1882 F         40 0.000346
##  6 John       1  1882 M       9557 0.0783  
##  7 John       1  1883 F         40 0.000333
##  8 John       1  1883 M       8894 0.0791  
##  9 John       1  1884 F         40 0.000291
## 10 John       1  1884 M       9388 0.0765  
## # ℹ 873 more rows

beat_full <- NULL

Solution

#Alistair's solution
beat_full <- full_join(beatnames, babynames, by = join_by(name), suffix = c("_beat", "_baby"))
beat_full

## # A tibble: 1,924,666 × 6
##    name  n_beat  year sex   n_baby     prop
##    <chr>  <int> <dbl> <chr>  <int>    <dbl>
##  1 John       1  1880 F         46 0.000471
##  2 John       1  1880 M       9655 0.0815  
##  3 John       1  1881 F         26 0.000263
##  4 John       1  1881 M       8769 0.0810  
##  5 John       1  1882 F         40 0.000346
##  6 John       1  1882 M       9557 0.0783  
##  7 John       1  1883 F         40 0.000333
##  8 John       1  1883 M       8894 0.0791  
##  9 John       1  1884 F         40 0.000291
## 10 John       1  1884 M       9388 0.0765  
## # ℹ 1,924,656 more rows
…
Sun_Season_1 <- wos_seasonal_sun %>%
  filter(year >= 1970)

Sun_Season_2 <- wos_seasonal_sun %>%
  filter(year < 1970)

Now we have 2 identical tables for seasonal sunshine in the west of Scotland, but for different sets of years. All the same variables, but totally different observations.

We can easily join these together with bind_rows to create a complete history.

Bind_1 <- bind_rows(Sun_Season_1, Sun_Season_2)
Bind_1

## # A tibble: 102 × 5
##     year   win   spr   sum   aut
##    <dbl> <dbl> <dbl> <dbl> <dbl>
##  1  1970  158.  385.  474.  202.
##  2  1971  115.  424.  475.  269 
##  3  1972  113.  380.  480.  282.
##  4  1973  116.  418.  444.  250 
##  5  1974  110.  471.  480.  244 
##  6  1975  130.  517.  561.  218.
##  7  1976  110.  343.  588.  213 
##  8  1977  156.  431.  599.  226.
##  9  1978  159.  394.  412.  192.
## 10  1979  155.  383.  403.  223.
## # ℹ 92 more rows

bind_rows() takes the second table Sun_Season_2 and puts it directly underneath the first table Sun_Season_1.

What happens if we attempt to bind tables with different dimensions

Bind_2 <- bind_rows(Sun_Season_1, inner)
Bind_2

## # A tibble: 420 × 11
##     year   win   spr   sum   aut name  sex_sw homeworld sex_baby     n  prop
##    <dbl> <dbl> <dbl> <dbl> <dbl> <chr> <chr>  <chr>     <chr>    <int> <dbl>
##  1  1970  158.  385.  474.  202. <NA>  <NA>   <NA>      <NA>        NA    NA
##  2  1971  115.  424.  475.  269  <NA>  <NA>   <NA>      <NA>        NA    NA
##  3  1972  113.  380.  480.  282. <NA>  <NA>   <NA>      <NA>        NA    NA
##  4  1973  116.  418.  444.  250  <NA>  <NA>   <NA>      <NA>        NA    NA
##  5  1974  110.  471.  480.  244  <NA>  <NA>   <NA>      <NA>        NA    NA
##  6  1975  130.  517.  561.  218. <NA>  <NA>   <NA>      <NA>        NA    NA
##  7  1976  110.  343.  588.  213  <NA>  <NA>   <NA>      <NA>        NA    NA
##  8  1977  156.  431.  599.  226. <NA>  <NA>   <NA>      <NA>        NA    NA
##  9  1978  159.  394.  412.  192. <NA>  <NA>   <NA>      <NA>        NA    NA
## 10  1979  155.  383.  403.  223. <NA>  <NA>   <NA>      <NA>        NA    NA
## # ℹ 410 more rows
…
example 1: bind_rows(data1, data2, data3) 
 example 2:
full_join(data1, data2) %>% full_join(data3)

Just to further clarify the differences between bind_cols() and the mutating joing verbs, lets look at how they would deal with the same challenge

First lets create a new table for winter sun data, but lets arrange it by “win”, so that rather than being in order of year, it is in order of most sunshine. This will have the same dimensions as the Summer_Sun table but a totally different order

Winter_Sun <- wos_seasonal_sun %>% 
  select(year, win) %>%
  arrange(desc(win))
Winter_Sun

## # A tibble: 102 × 2
##     year   win
##    <dbl> <dbl>
##  1  1963  204.
##  2  2018  170.
##  3  2003  169.
##  4  2001  166 
##  5  1965  165 
##  6  2004  163.
##  7  1978  159.
##  8  1968  159.
##  9  1970  158.
## 10  1996  156.
## # ℹ 92 more rows
Now lets make a Summer_sun table the same way and try joining it with Winter_Sun using the two different methods

Summer_Sun <- wos_seasonal_sun %>% 
  select(year, sum) %>%
  arrange(desc(sum))

Comparison_1 <- bind_cols(Summer_Sun, Winter_Sun)

## New names:
## • `year` -> `year...1`
## • `year` -> `year...3`

Comparison_1

## # A tibble: 102 × 4
##    year...1   sum year...3   win
##       <dbl> <dbl>    <dbl> <dbl>
##  1     1995  652.     1963  204.
##  2     1955  604      2018  170.
##  3     1977  599.     2003  169.
##  4     1976  588.     2001  166 
##  5     1989  564.     1965  165 
##  6     1975  561.     2004  163.
##  7     1949  544.     1978  159.
##  8     1984  543.     1968  159.
##  9     2018  539.     1970  158.
## 10     1925  529.     1996  156.
## # ℹ 92 more rows

Comparison_2 <- left_join(Summer_Sun, Winter_Sun, by = join_by(year))
Comparison_2

## # A tibble: 102 × 3
##     year   sum   win
##    <dbl> <dbl> <dbl>
##  1  1995  652. 122. 
##  2  1955  604  143  
##  3  1977  599. 156. 
##  4  1976  588. 110. 
##  5  1989  564. 111. 
##  6  1975  561. 130. 
##  7  1949  544. 120  
##  8  1984  543. 105. 
##  9  2018  539. 170. 
## 10  1925  529.  87.5
## # ℹ 92 more rows
…
